{
    "result": {
        "tile": 3,
        "imageWidth": 800,
        "imageHeight": 416.5,
        "interfaceWidth": 803,
        "interfaceHeight": 398,
        "views": {
            "1": {
                "hierarchy": "1",
                "cX": 0.062889165629,
                "cY": 0.492462311558,
                "cWidth": 0.125778331258,
                "cHeight": 0.984924623116,
                "viewType": [
                    {
                        "layout": "Vertical",
                        "Type": "small multiple",
                        "probability": "2"
                    }
                ],
                "mid_view": {
                    "1": {
                        "hierarchy": "1.1",
                        "cX": 0.062889165629,
                        "cY": 0.19346733668347613,
                        "cWidth": "0.125778331258",
                        "cHeight": "0.38693467336695225",
                        "viewType": [
                            {
                                "layout": "Free",
                                "Type": "Bar",
                                "probability": "1"
                            }
                        ]
                    },
                    "2": {
                        "hierarchy": "1.2",
                        "cX": 0.062889165629,
                        "cY": 0.6859296482414761,
                        "cWidth": "0.125778331258",
                        "cHeight": "0.5979899497490478",
                        "viewType": [
                            {
                                "layout": "Free",
                                "Type": "Bar",
                                "probability": "1"
                            }
                        ]
                    }
                }
            },
            "2": {
                "hierarchy": "2",
                "cX": 0.3929016189290856,
                "cY": 0.492462311558,
                "cWidth": 0.5342465753421712,
                "cHeight": 0.984924623116,
                "viewType": [
                    {
                        "layout": "Free",
                        "Type": "Tree and Network (Graph)",
                        "probability": "1"
                    }
                ],
                "mid_view": {}
            },
            "3": {
                "hierarchy": "3",
                "cX": 0.8250311332502721,
                "cY": 0.492462311558,
                "cWidth": 0.33001245330020174,
                "cHeight": 0.984924623116,
                "viewType": [
                    {
                        "layout": "Vertical",
                        "Type": "small multiple",
                        "probability": "2"
                    }
                ],
                "mid_view": {
                    "1": {
                        "hierarchy": "3.1",
                        "cX": 0.8250311332502721,
                        "cY": 0.1934673366834058,
                        "cWidth": "0.33001245330020174",
                        "cHeight": "0.3869346733668116",
                        "viewType": [
                            {
                                "layout": "Free",
                                "Type": "Table",
                                "probability": "1"
                            }
                        ]
                    },
                    "2": {
                        "hierarchy": "3.2",
                        "cX": 0.8250311332502721,
                        "cY": 0.6859296482414059,
                        "cWidth": "0.33001245330020174",
                        "cHeight": "0.5979899497491885",
                        "viewType": [
                            {
                                "layout": "Free",
                                "Type": "Table",
                                "probability": "1"
                            }
                        ]
                    }
                }
            }
        },
        "interfaceX": 1.9999999999129967,
        "interfaceY": 1.9999999999159872
    }
}