{
    "result": {
        "tile": 14,
        "imageWidth": 745.9166870117188,
        "imageHeight": 450,
        "interfaceWidth": 743,
        "interfaceHeight": 432,
        "views": {
            "1": {
                "hierarchy": "1",
                "cX": 0.49663526244952894,
                "cY": 0.057870370370370336,
                "cWidth": "0.9932705248990579",
                "cHeight": "0.11574074074074067",
                "viewType": [
                    {
                        "Type": "dashboard",
                        "probability": "1",
                        "layout": "Free"
                    }
                ],
                "mid_view": {}
            },
            "2": {
                "hierarchy": "2",
                "cX": 0.42462987886944825,
                "cY": 0.46875,
                "cWidth": "0.8492597577388964",
                "cHeight": "0.7060185185185185",
                "viewType": [
                    {
                        "Type": "SciVis",
                        "probability": "1",
                        "layout": "Free"
                    }
                ],
                "mid_view": {}
            },
            "3": {
                "hierarchy": "3",
                "cX": 0.9212651413189772,
                "cY": 0.5555555555555555,
                "cWidth": "0.1440107671601615",
                "cHeight": "0.8796296296296295",
                "viewType": [
                    {
                        "Type": "dashboard",
                        "probability": "1",
                        "layout": "Free"
                    }
                ],
                "mid_view": {}
            },
            "4": {
                "hierarchy": "4",
                "cX": 0.42462987886944825,
                "cY": 0.9085648148148148,
                "cWidth": "0.8492597577388964",
                "cHeight": "0.1736111111111111",
                "viewType": [
                    {
                        "Type": "Grid/Matrix",
                        "probability": "1",
                        "layout": "Horizontal "
                    }
                ],
                "mid_view": {}
            }
        },
        "interfaceX": 7.999999999999969,
        "interfaceY": 2.0
    }
}