{
    "result": {
        "tile": 3,
        "imageWidth": 800,
        "imageHeight": 394.03125,
        "interfaceWidth": 798,
        "interfaceHeight": 392,
        "views": {
            "1": {
                "hierarchy": "1",
                "cX": 0.06203007518796992,
                "cY": 0.49489795918367346,
                "cWidth": "0.12406015037593984",
                "cHeight": "0.9897959183673469",
                "viewType": [
                    {
                        "Type": "small multiple",
                        "probability": "5",
                        "layout": "Free"
                    }
                ],
                "mid_view": {
                    "1": {
                        "hierarchy": "1.1",
                        "cX": 0.06203007518796992,
                        "cY": 0.12755102040816324,
                        "cWidth": "0.12406015037593984",
                        "cHeight": "0.2551020408163265",
                        "viewType": [
                            {
                                "Type": "Bar",
                                "probability": "1"
                            }
                        ]
                    },
                    "2": {
                        "hierarchy": "1.2",
                        "cX": 0.06203007518796992,
                        "cY": 0.3864795918367347,
                        "cWidth": "0.12406015037593984",
                        "cHeight": "0.26275510204081637",
                        "viewType": [
                            {
                                "Type": "Bar",
                                "probability": "1"
                            }
                        ]
                    },
                    "3": {
                        "hierarchy": "1.3",
                        "cX": 0.06203007518796992,
                        "cY": 0.5701530612244898,
                        "cWidth": "0.12406015037593984",
                        "cHeight": "0.10459183673469391",
                        "viewType": [
                            {
                                "Type": "Bar",
                                "probability": "1"
                            }
                        ]
                    },
                    "4": {
                        "hierarchy": "1.4",
                        "cX": 0.06203007518796992,
                        "cY": 0.7225765306122449,
                        "cWidth": "0.12406015037593984",
                        "cHeight": "0.2002551020408163",
                        "viewType": [
                            {
                                "Type": "Bar",
                                "probability": "1"
                            }
                        ]
                    },
                    "5": {
                        "hierarchy": "1.5",
                        "cX": 0.06203007518796992,
                        "cY": 0.90625,
                        "cWidth": "0.12406015037593984",
                        "cHeight": "0.16709183673469374",
                        "viewType": [
                            {
                                "Type": "Bar",
                                "probability": "1"
                            }
                        ]
                    }
                }
            },
            "2": {
                "hierarchy": "2",
                "cX": 0.406641604010025,
                "cY": 0.49489795918367346,
                "cWidth": "0.5651629072681704",
                "cHeight": "0.9897959183673469",
                "viewType": [
                    {
                        "Type": "Tree and Network (Graph)",
                        "probability": "1",
                        "layout": "Circle"
                    }
                ],
                "mid_view": {}
            },
            "3": {
                "hierarchy": "3",
                "cX": 0.8414786967418546,
                "cY": 0.49489795918367346,
                "cWidth": "0.3045112781954887",
                "cHeight": "0.9897959183673469",
                "viewType": [
                    {
                        "Type": "Distribution",
                        "probability": "1",
                        "layout": "Horizontal "
                    }
                ],
                "mid_view": {}
            }
        },
        "interfaceX": 7.0,
        "interfaceY": 6.000000000000007
    }
}