{
    "result": {
        "tile": 119,
        "imageWidth": 800,
        "imageHeight": 248,
        "interfaceWidth": 796,
        "interfaceHeight": 223,
        "views": {
            "1": {
                "hierarchy": "1",
                "cX": 0.052135678391959796,
                "cY": 0.49103139013452923,
                "cWidth": "0.10427135678391959",
                "cHeight": "0.9820627802690582",
                "viewType": [
                    {
                        "Type": "dashboard",
                        "probability": "1",
                        "layout": "Free"
                    }
                ],
                "mid_view": {}
            },
            "2": {
                "hierarchy": "2",
                "cX": 0.15829145728643215,
                "cY": 0.13452914798206286,
                "cWidth": "0.10804020100502512",
                "cHeight": "0.26905829596412556",
                "viewType": [
                    {
                        "Type": "dashboard",
                        "probability": "1",
                        "layout": "Free"
                    }
                ],
                "mid_view": {}
            },
            "3": {
                "hierarchy": "3",
                "cX": 0.15829145728643215,
                "cY": 0.6255605381165921,
                "cWidth": "0.10804020100502512",
                "cHeight": "0.7130044843049327",
                "viewType": [
                    {
                        "Type": "small multiple",
                        "probability": "4",
                        "layout": "Free"
                    }
                ],
                "mid_view": {
                    "1": {
                        "hierarchy": "3.1",
                        "cX": 0.15829145728643215,
                        "cY": 0.3452914798206279,
                        "cWidth": "0.10804020100502512",
                        "cHeight": "0.15246636771300442",
                        "viewType": [
                            {
                                "Type": "Line",
                                "probability": "1"
                            }
                        ]
                    },
                    "2": {
                        "hierarchy": "3.2",
                        "cX": 0.15829145728643215,
                        "cY": 0.4977578475336323,
                        "cWidth": "0.10804020100502512",
                        "cHeight": "0.15246636771300442",
                        "viewType": [
                            {
                                "Type": "Line",
                                "probability": "1"
                            }
                        ]
                    },
                    "3": {
                        "hierarchy": "3.3",
                        "cX": 0.15829145728643215,
                        "cY": 0.6502242152466368,
                        "cWidth": "0.10804020100502512",
                        "cHeight": "0.15246636771300442",
                        "viewType": [
                            {
                                "Type": "Line",
                                "probability": "1"
                            }
                        ]
                    },
                    "4": {
                        "hierarchy": "3.4",
                        "cX": 0.15829145728643215,
                        "cY": 0.8542600896860987,
                        "cWidth": "0.10804020100502512",
                        "cHeight": "0.25560538116591935",
                        "viewType": [
                            {
                                "Type": "Line",
                                "probability": "1"
                            }
                        ]
                    }
                }
            },
            "4": {
                "hierarchy": "4",
                "cX": 0.5521356783919599,
                "cY": 0.24663677130044845,
                "cWidth": "0.67964824120603",
                "cHeight": "0.4932735426008969",
                "viewType": [
                    {
                        "Type": "small multiple",
                        "probability": "5"
                    }
                ],
                "mid_view": {
                    "1": {
                        "hierarchy": "4.1",
                        "cX": 0.2801507537688443,
                        "cY": 0.24663677130044845,
                        "cWidth": "0.1356783919597988",
                        "cHeight": "0.4932735426008969",
                        "viewType": [
                            {
                                "Type": "Bar",
                                "probability": "1"
                            }
                        ]
                    },
                    "2": {
                        "hierarchy": "4.2",
                        "cX": 0.4158291457286431,
                        "cY": 0.24663677130044845,
                        "cWidth": "0.1356783919597988",
                        "cHeight": "0.4932735426008969",
                        "viewType": [
                            {
                                "Type": "Bar",
                                "probability": "1"
                            }
                        ]
                    },
                    "3": {
                        "hierarchy": "4.3",
                        "cX": 0.5515075376884419,
                        "cY": 0.24663677130044845,
                        "cWidth": "0.1356783919597988",
                        "cHeight": "0.4932735426008969",
                        "viewType": [
                            {
                                "Type": "Bar",
                                "probability": "1"
                            }
                        ]
                    },
                    "4": {
                        "hierarchy": "4.4",
                        "cX": 0.6871859296482407,
                        "cY": 0.24663677130044845,
                        "cWidth": "0.1356783919597988",
                        "cHeight": "0.4932735426008969",
                        "viewType": [
                            {
                                "Type": "Bar",
                                "probability": "1"
                            }
                        ]
                    },
                    "5": {
                        "hierarchy": "4.5",
                        "cX": 0.8234924623115575,
                        "cY": 0.24663677130044845,
                        "cWidth": "0.13693467336683485",
                        "cHeight": "0.4932735426008969",
                        "viewType": [
                            {
                                "Type": "Bar",
                                "probability": "1"
                            }
                        ]
                    }
                }
            },
            "5": {
                "hierarchy": "5",
                "cX": 0.5521356783919599,
                "cY": 0.6659192825112109,
                "cWidth": "0.67964824120603",
                "cHeight": "0.34529147982062774",
                "viewType": [
                    {
                        "Type": "small multiple",
                        "probability": "5"
                    }
                ],
                "mid_view": {
                    "1": {
                        "hierarchy": "5.1",
                        "cX": 0.27889447236180914,
                        "cY": 0.6659192825112109,
                        "cWidth": "0.1331658291457285",
                        "cHeight": "0.34529147982062774",
                        "viewType": [
                            {
                                "Type": "Point",
                                "probability": "1"
                            }
                        ]
                    },
                    "2": {
                        "hierarchy": "5.2",
                        "cX": 0.41206030150753764,
                        "cY": 0.6659192825112109,
                        "cWidth": "0.1331658291457285",
                        "cHeight": "0.34529147982062774",
                        "viewType": [
                            {
                                "Type": "Point",
                                "probability": "1"
                            }
                        ]
                    },
                    "3": {
                        "hierarchy": "5.3",
                        "cX": 0.5452261306532661,
                        "cY": 0.6659192825112109,
                        "cWidth": "0.1331658291457285",
                        "cHeight": "0.34529147982062774",
                        "viewType": [
                            {
                                "Type": "Point",
                                "probability": "1"
                            }
                        ]
                    },
                    "4": {
                        "hierarchy": "5.4",
                        "cX": 0.6783919597989946,
                        "cY": 0.6659192825112109,
                        "cWidth": "0.1331658291457285",
                        "cHeight": "0.34529147982062774",
                        "viewType": [
                            {
                                "Type": "Point",
                                "probability": "1"
                            }
                        ]
                    },
                    "5": {
                        "hierarchy": "5.5",
                        "cX": 0.8184673366834169,
                        "cY": 0.6659192825112109,
                        "cWidth": "0.14698492462311608",
                        "cHeight": "0.34529147982062774",
                        "viewType": [
                            {
                                "Type": "Point",
                                "probability": "1"
                            }
                        ]
                    }
                }
            },
            "6": {
                "hierarchy": "6",
                "cX": 0.5521356783919599,
                "cY": 0.9103139013452916,
                "cWidth": "0.67964824120603",
                "cHeight": "0.14349775784753363",
                "viewType": [
                    {
                        "Type": "small multiple",
                        "probability": "5"
                    }
                ],
                "mid_view": {
                    "1": {
                        "hierarchy": "6.1",
                        "cX": 0.2757537688442212,
                        "cY": 0.9103139013452916,
                        "cWidth": "0.12688442211055256",
                        "cHeight": "0.14349775784753363",
                        "viewType": [
                            {
                                "Type": "Bar",
                                "probability": "1"
                            }
                        ]
                    },
                    "2": {
                        "hierarchy": "6.2",
                        "cX": 0.40263819095477377,
                        "cY": 0.9103139013452916,
                        "cWidth": "0.12688442211055256",
                        "cHeight": "0.14349775784753363",
                        "viewType": [
                            {
                                "Type": "Bar",
                                "probability": "1"
                            }
                        ]
                    },
                    "3": {
                        "hierarchy": "6.3",
                        "cX": 0.5295226130653263,
                        "cY": 0.9103139013452916,
                        "cWidth": "0.12688442211055256",
                        "cHeight": "0.14349775784753363",
                        "viewType": [
                            {
                                "Type": "Bar",
                                "probability": "1"
                            }
                        ]
                    },
                    "4": {
                        "hierarchy": "6.4",
                        "cX": 0.656407035175879,
                        "cY": 0.9103139013452916,
                        "cWidth": "0.12688442211055256",
                        "cHeight": "0.14349775784753363",
                        "viewType": [
                            {
                                "Type": "Bar",
                                "probability": "1"
                            }
                        ]
                    },
                    "5": {
                        "hierarchy": "6.5",
                        "cX": 0.8059045226130651,
                        "cY": 0.9103139013452916,
                        "cWidth": "0.1721105527638197",
                        "cHeight": "0.14349775784753363",
                        "viewType": [
                            {
                                "Type": "Bar",
                                "probability": "1"
                            }
                        ]
                    }
                }
            },
            "7": {
                "hierarchy": "7",
                "cX": 0.9453517587939698,
                "cY": 0.49103139013452923,
                "cWidth": "0.1067839195979899",
                "cHeight": "0.9820627802690582",
                "viewType": [
                    {
                        "Type": "dashboard",
                        "probability": "1"
                    }
                ],
                "mid_view": {}
            }
        },
        "interfaceX": 5.000000000000005,
        "interfaceY": 17.999999999999982
    }
}