{
    "result": {
        "imageWidth": 800,
        "imageHeight": 356.07293701171875,
        "interfaceWidth": 791,
        "interfaceHeight": 352,
        "views": {
            "1": {
                "hierarchy": "1",
                "function": "Null",
                "cX": 0.09481668773704172,
                "cY": 0.48863636363636365,
                "cWidth": 0.18963337547408343,
                "cHeight": 0.9772727272727273,
                "viewType": [
                    {
                        "Type": "dashboard",
                        "probability": "1",
                        "layout": "Free"
                    }
                ],
                "mid_view": {}
            },
            "2": {
                "hierarchy": "2",
                "function": "Null",
                "cX": 0.5922882427307206,
                "cY": 0.48863636363636365,
                "cWidth": 0.8053097345132744,
                "cHeight": 0.9772727272727273,
                "viewType": [
                    {
                        "Type": "Table",
                        "probability": "0.8",
                        "layout": "Free"
                    },
                    {
                        "Type": "Bar",
                        "probability": "0.2",
                        "layout": "Free"
                    }
                ],
                "mid_view": {}
            }
        },
        "tile": 1,
        "interfaceX": 10.000000000000007,
        "interfaceY": 7.0000000000000036
    }
}