{
    "result": {
        "tile": 11,
        "imageWidth": 800,
        "imageHeight": 304.60418701171875,
        "interfaceWidth": 620,
        "interfaceHeight": 300,
        "views": {
            "1": {
                "hierarchy": "1",
                "cX": 0.0975806451615,
                "cY": 0.505,
                "cWidth": 0.195161290323,
                "cHeight": 1.01,
                "viewType": [
                    {
                        "layout": "Free",
                        "Type": "dashboard",
                        "probability": "1"
                    }
                ],
                "mid_view": {}
            },
            "2": {
                "hierarchy": "2",
                "cX": 0.48064516129066936,
                "cY": 0.505,
                "cWidth": 0.5709677419353387,
                "cHeight": 1.01,
                "viewType": [
                    {
                        "layout": "Free",
                        "Type": "Area",
                        "probability": "0.8"
                    },
                    {
                        "layout": "Free",
                        "Type": "Tree and Network (Graph)",
                        "probability": "0.2"
                    }
                ],
                "mid_view": {}
            },
            "3": {
                "hierarchy": "3",
                "cX": 0.8774193548389839,
                "cY": 0.28499999999991665,
                "cWidth": 0.22258064516129028,
                "cHeight": 0.5699999999998333,
                "viewType": [
                    {
                        "layout": "Free",
                        "Type": "Tree and Network (Graph)",
                        "probability": "1"
                    }
                ],
                "mid_view": {}
            },
            "4": {
                "hierarchy": "4",
                "cX": 0.8774193548389839,
                "cY": 0.7899999999999167,
                "cWidth": 0.22258064516129028,
                "cHeight": 0.440000000000167,
                "viewType": [
                    {
                        "layout": "Free",
                        "Type": "Text Based",
                        "probability": "1"
                    }
                ],
                "mid_view": {}
            }
        },
        "interfaceX": 92.99999999987,
        "interfaceY": -0.9999999999999898
    }
}