{
    "result": {
        "tile": 1,
        "imageWidth": 686.25,
        "imageHeight": 450,
        "interfaceWidth": 651,
        "interfaceHeight": 404,
        "views": {
            "1": {
                "hierarchy": "1",
                "cX": 0.053763440860215055,
                "cY": 0.49504950495049505,
                "cWidth": "0.10752688172043011",
                "cHeight": "0.9900990099009901",
                "viewType": [
                    {
                        "Type": "small multiple",
                        "probability": "8",
                        "layout": "Free"
                    }
                ],
                "mid_view": {
                    "1": {
                        "hierarchy": "1.1",
                        "cX": 0.053763440860215055,
                        "cY": 0.07178217821782178,
                        "cWidth": "0.10752688172043011",
                        "cHeight": "0.14356435643564355",
                        "viewType": [
                            {
                                "Type": "Bar",
                                "probability": "1"
                            }
                        ]
                    },
                    "2": {
                        "hierarchy": "1.2",
                        "cX": 0.053763440860215055,
                        "cY": 0.23576732673267325,
                        "cWidth": "0.10752688172043011",
                        "cHeight": "0.1844059405940594",
                        "viewType": [
                            {
                                "Type": "Bar",
                                "probability": "1"
                            }
                        ]
                    },
                    "3": {
                        "hierarchy": "1.3",
                        "cX": 0.053763440860215055,
                        "cY": 0.39108910891089105,
                        "cWidth": "0.10752688172043011",
                        "cHeight": "0.12623762376237624",
                        "viewType": [
                            {
                                "Type": "Bar",
                                "probability": "1"
                            }
                        ]
                    },
                    "4": {
                        "hierarchy": "1.4",
                        "cX": 0.053763440860215055,
                        "cY": 0.4956683168316831,
                        "cWidth": "0.10752688172043011",
                        "cHeight": "0.08292079207920794",
                        "viewType": [
                            {
                                "Type": "Bar",
                                "probability": "1"
                            }
                        ]
                    },
                    "5": {
                        "hierarchy": "1.5",
                        "cX": 0.053763440860215055,
                        "cY": 0.5717821782178217,
                        "cWidth": "0.10752688172043011",
                        "cHeight": "0.06930693069306931",
                        "viewType": [
                            {
                                "Type": "Bar",
                                "probability": "1"
                            }
                        ]
                    },
                    "6": {
                        "hierarchy": "1.6",
                        "cX": 0.053763440860215055,
                        "cY": 0.6868811881188118,
                        "cWidth": "0.10752688172043011",
                        "cHeight": "0.1608910891089109",
                        "viewType": [
                            {
                                "Type": "Bar",
                                "probability": "1"
                            }
                        ]
                    },
                    "7": {
                        "hierarchy": "1.7",
                        "cX": 0.053763440860215055,
                        "cY": 0.828589108910891,
                        "cWidth": "0.10752688172043011",
                        "cHeight": "0.12252475247524752",
                        "viewType": [
                            {
                                "Type": "Bar",
                                "probability": "1"
                            }
                        ]
                    },
                    "8": {
                        "hierarchy": "1.8",
                        "cX": 0.053763440860215055,
                        "cY": 0.9399752475247525,
                        "cWidth": "0.10752688172043011",
                        "cHeight": "0.10024752475247523",
                        "viewType": [
                            {
                                "Type": "Bar",
                                "probability": "1"
                            }
                        ]
                    }
                }
            },
            "2": {
                "hierarchy": "2",
                "cX": 0.5529953917050691,
                "cY": 0.49504950495049505,
                "cWidth": "0.890937019969278",
                "cHeight": "0.9900990099009901",
                "viewType": [
                    {
                        "Type": "Grid/Matrix",
                        "probability": "1",
                        "layout": "Free"
                    }
                ],
                "mid_view": {}
            }
        },
        "interfaceX": 0.0,
        "interfaceY": 8.000000000000007
    }
}