{
    "result": {
        "tile": 80,
        "imageWidth": 739.6979370117188,
        "imageHeight": 450,
        "interfaceWidth": 739,
        "interfaceHeight": 452,
        "views": {
            "1": {
                "hierarchy": "1",
                "cX": 0.06562922868741544,
                "cY": 0.47123893805309736,
                "cWidth": 0.13125845737483088,
                "cHeight": 0.9424778761061947,
                "viewType": [
                    {
                        "Type": "Grid/Matrix",
                        "probability": "1",
                        "layout": "Free"
                    }
                ],
                "mid_view": {}
            },
            "2": {
                "hierarchy": "2",
                "cX": 0.4844384303112314,
                "cY": 0.08849557522123896,
                "cWidth": 0.706359945872801,
                "cHeight": 0.17699115044247787,
                "viewType": [
                    {
                        "Type": "Bar",
                        "probability": "1",
                        "layout": "Free"
                    }
                ],
                "mid_view": {}
            },
            "3": {
                "hierarchy": "3",
                "cX": 0.4844384303112314,
                "cY": 0.29646017699115046,
                "cWidth": 0.706359945872801,
                "cHeight": 0.23893805309734514,
                "viewType": [
                    {
                        "Type": "Area",
                        "probability": "1",
                        "layout": "Free"
                    }
                ],
                "mid_view": {}
            },
            "4": {
                "hierarchy": "4",
                "cX": 0.48240866035182683,
                "cY": 0.6792035398230089,
                "cWidth": 0.7023004059539919,
                "cHeight": 0.5265486725663717,
                "viewType": [
                    {
                        "Type": "Map",
                        "probability": "1",
                        "layout": "Free"
                    }
                ],
                "mid_view": {}
            },
            "5": {
                "hierarchy": "5",
                "cX": 0.9174560216508796,
                "cY": 0.2079646017699115,
                "cWidth": 0.15967523680649529,
                "cHeight": 0.415929203539823,
                "viewType": [
                    {
                        "Type": "dashboard",
                        "probability": "1",
                        "layout": "Free"
                    }
                ],
                "mid_view": {}
            },
            "6": {
                "hierarchy": "6",
                "cX": 0.915426251691475,
                "cY": 0.6792035398230089,
                "cWidth": 0.16373477672530462,
                "cHeight": 0.5265486725663717,
                "viewType": [
                    {
                        "Type": "Circle",
                        "probability": "1"
                    }
                ],
                "mid_view": {}
            }
        },
        "interfaceX": 3.000000000000006,
        "interfaceY": 23.999999999999986
    }
}