{
    "result": {
        "tile": 13,
        "imageWidth": 800,
        "imageHeight": 405.4895935058594,
        "interfaceWidth": 620,
        "interfaceHeight": 376,
        "views": {
            "1": {
                "hierarchy": "1",
                "cX": 0.2814516129032258,
                "cY": 0.3390957446808511,
                "cWidth": 0.5629032258064516,
                "cHeight": 0.6781914893617021,
                "viewType": [
                    {
                        "Type": "Point",
                        "probability": "1",
                        "layout": "Free"
                    }
                ],
                "mid_view": {}
            },
            "2": {
                "hierarchy": "2",
                "cX": 0.7749999999999999,
                "cY": 0.2406914893617022,
                "cWidth": 0.4241935483870968,
                "cHeight": 0.48138297872340424,
                "viewType": [
                    {
                        "Type": "Tree and Network (Graph)",
                        "probability": "1",
                        "layout": "Free"
                    }
                ],
                "mid_view": {}
            },
            "3": {
                "hierarchy": "3",
                "cX": 0.2814516129032258,
                "cY": 0.8138297872340425,
                "cWidth": 0.5629032258064516,
                "cHeight": 0.2712765957446809,
                "viewType": [
                    {
                        "Type": "Line",
                        "probability": "1",
                        "layout": "Free"
                    }
                ],
                "mid_view": {}
            },
            "4": {
                "hierarchy": "4",
                "cX": 0.7749999999999999,
                "cY": 0.7167553191489362,
                "cWidth": 0.4241935483870968,
                "cHeight": 0.46542553191489366,
                "viewType": [
                    {
                        "Type": "small multiple",
                        "probability": "3",
                        "layout": "Vertical"
                    }
                ],
                "mid_view": {
                    "1": {
                        "hierarchy": "4.1",
                        "cX": 0.7749999999999999,
                        "cY": 0.550531914893617,
                        "cWidth": "0.4241935483870968",
                        "cHeight": "0.13297872340425532",
                        "viewType": [
                            {
                                "Type": "Bar",
                                "probability": "1",
                                "layout": "Horizontal "
                            }
                        ]
                    },
                    "2": {
                        "hierarchy": "4.2",
                        "cX": 0.7749999999999999,
                        "cY": 0.6835106382978722,
                        "cWidth": "0.4241935483870968",
                        "cHeight": "0.13297872340425532",
                        "viewType": [
                            {
                                "Type": "Bar",
                                "probability": "1",
                                "layout": "Horizontal "
                            }
                        ]
                    },
                    "3": {
                        "hierarchy": "4.3",
                        "cX": 0.7749999999999999,
                        "cY": 0.8497340425531914,
                        "cWidth": "0.4241935483870968",
                        "cHeight": "0.19946808510638303",
                        "viewType": [
                            {
                                "Type": "Bar",
                                "probability": "1",
                                "layout": "Horizontal "
                            }
                        ]
                    }
                }
            }
        },
        "interfaceX": 8.000000000000021,
        "interfaceY": 19.999999999999986
    }
}