{
    "result": {
        "imageWidth": 784.0729370117188,
        "imageHeight": 450,
        "interfaceWidth": 776,
        "interfaceHeight": 431,
        "views": {
            "1": {
                "hierarchy": "1",
                "function": "Null",
                "cX": 0.360180412371134,
                "cY": 0.30626450116009285,
                "cWidth": 0.720360824742268,
                "cHeight": 0.6125290023201856,
                "viewType": [
                    {
                        "Type": "Map",
                        "probability": "1",
                        "layout": "Free"
                    }
                ],
                "mid_view": {}
            },
            "2": {
                "hierarchy": "2",
                "function": "Null",
                "cX": 0.8588917525773196,
                "cY": 0.44663573085846864,
                "cWidth": 0.2770618556701031,
                "cHeight": 0.8932714617169373,
                "viewType": [
                    {
                        "Type": "dashboard",
                        "probability": "1",
                        "layout": "Free"
                    }
                ],
                "mid_view": {}
            },
            "3": {
                "hierarchy": "3",
                "function": "Null",
                "cX": 0.360180412371134,
                "cY": 0.7529002320185615,
                "cWidth": 0.720360824742268,
                "cHeight": 0.2807424593967517,
                "viewType": [
                    {
                        "Type": "dashboard",
                        "probability": "1",
                        "layout": "Free"
                    }
                ],
                "mid_view": {}
            }
        },
        "tile": 6,
        "interfaceX": 8.000000000000014,
        "interfaceY": 45.999999999999986
    }
}