{
    "result": {
        "imageWidth": 800,
        "imageHeight": 434.7395935058594,
        "interfaceWidth": 412,
        "interfaceHeight": 417,
        "views": {
            "1": {
                "hierarchy": "1",
                "function": "Null",
                "cX": 0.11650485436893204,
                "cY": 0.49640287769784175,
                "cWidth": 0.23300970873786409,
                "cHeight": 0.9928057553956835,
                "viewType": [
                    {
                        "Type": "dashboard",
                        "probability": "1",
                        "layout": "Free"
                    }
                ],
                "mid_view": {}
            },
            "2": {
                "hierarchy": "2",
                "function": "Null",
                "cX": 0.6152912621359224,
                "cY": 0.49640287769784175,
                "cWidth": 0.7645631067961165,
                "cHeight": 0.9928057553956835,
                "viewType": [
                    {
                        "Type": "Tree and Network (Graph)",
                        "probability": "1",
                        "layout": "Free"
                    }
                ],
                "mid_view": {}
            }
        },
        "tile": 1,
        "interfaceX": 4.999999999999998,
        "interfaceY": 6.000000000000009
    }
}