{
    "result": {
        "tile": 28,
        "imageWidth": 800,
        "imageHeight": 385.60418701171875,
        "interfaceWidth": 802,
        "interfaceHeight": 394,
        "views": {
            "1": {
                "hierarchy": "1",
                "cX": 0.17456359102250002,
                "cY": 0.3464467005074999,
                "cWidth": 0.349127182045,
                "cHeight": 0.6928934010149999,
                "viewType": [
                    {
                        "layout": "Free",
                        "Type": "Grid/Matrix",
                        "probability": "1"
                    }
                ],
                "mid_view": {}
            },
            "2": {
                "hierarchy": "2",
                "cX": 0.43453865336660036,
                "cY": 0.3464467005074999,
                "cWidth": 0.1708229426432008,
                "cHeight": 0.6928934010149999,
                "viewType": [
                    {
                        "layout": "Free",
                        "Type": "dashboard",
                        "probability": "1"
                    }
                ],
                "mid_view": {}
            },
            "3": {
                "hierarchy": "3",
                "cX": 0.6920199501247402,
                "cY": 0.3464467005074999,
                "cWidth": 0.34413965087307863,
                "cHeight": 0.6928934010149999,
                "viewType": [
                    {
                        "layout": "Free",
                        "Type": "Point",
                        "probability": "1"
                    }
                ],
                "mid_view": {}
            },
            "4": {
                "hierarchy": "4",
                "cX": 0.9251870324191702,
                "cY": 0.3464467005074999,
                "cWidth": 0.12219451371578173,
                "cHeight": 0.6928934010149999,
                "viewType": [
                    {
                        "layout": "Free",
                        "Type": "dashboard",
                        "probability": "1"
                    }
                ],
                "mid_view": {}
            },
            "5": {
                "hierarchy": "5",
                "cX": 0.49314214463853057,
                "cY": 0.8223350253805405,
                "cWidth": 0.9862842892770611,
                "cHeight": 0.2588832487310813,
                "viewType": [
                    {
                        "layout": "Free",
                        "Type": "Line",
                        "probability": "1"
                    }
                ],
                "mid_view": {}
            }
        },
        "interfaceX": 7.999999999954982,
        "interfaceY": 11.000000000045022
    }
}