{
    "result": {
        "tile": 27,
        "imageWidth": 800,
        "imageHeight": 438.7395935058594,
        "interfaceWidth": 786,
        "interfaceHeight": 386,
        "views": {
            "1": {
                "hierarchy": "1",
                "cX": 0.1183206106870229,
                "cY": 0.24611398963730569,
                "cWidth": 0.2366412213740458,
                "cHeight": 0.49222797927461137,
                "viewType": [
                    {
                        "Type": "Point",
                        "probability": "1"
                    }
                ],
                "mid_view": {}
            },
            "2": {
                "hierarchy": "2",
                "cX": 0.1183206106870229,
                "cY": 0.7435233160621761,
                "cWidth": 0.2366412213740458,
                "cHeight": 0.5025906735751295,
                "viewType": [
                    {
                        "Type": "Text Based",
                        "probability": "1"
                    }
                ],
                "mid_view": {}
            },
            "3": {
                "hierarchy": "3",
                "cX": 0.48027989821882955,
                "cY": 0.33160621761658027,
                "cWidth": 0.4872773536895674,
                "cHeight": 0.6632124352331605,
                "viewType": [
                    {
                        "Type": "small multiple",
                        "probability": "2"
                    }
                ],
                "mid_view": {
                    "1": {
                        "hierarchy": "3.1",
                        "cX": 0.35750636132315516,
                        "cY": 0.33160621761658027,
                        "cWidth": "0.24173027989821888",
                        "cHeight": "0.6632124352331605",
                        "viewType": [
                            {
                                "Type": "Point",
                                "probability": "1"
                            }
                        ]
                    },
                    "2": {
                        "hierarchy": "3.2",
                        "cX": 0.6011450381679388,
                        "cY": 0.33160621761658027,
                        "cWidth": "0.24554707379134866",
                        "cHeight": "0.6632124352331605",
                        "viewType": [
                            {
                                "Type": "Point",
                                "probability": "1"
                            }
                        ]
                    }
                }
            },
            "4": {
                "hierarchy": "4",
                "cX": 0.48091603053435117,
                "cY": 0.8290155440414507,
                "cWidth": 0.48346055979643765,
                "cHeight": 0.3316062176165803,
                "viewType": [
                    {
                        "Type": "small multiple",
                        "probability": "3"
                    }
                ],
                "mid_view": {
                    "1": {
                        "hierarchy": "4.1",
                        "cX": 0.48091603053435117,
                        "cY": 0.7305699481865284,
                        "cWidth": "0.48346055979643765",
                        "cHeight": "0.13471502590673579",
                        "viewType": [
                            {
                                "Type": "Bar",
                                "probability": "1"
                            }
                        ]
                    },
                    "2": {
                        "hierarchy": "4.2",
                        "cX": 0.48091603053435117,
                        "cY": 0.8445595854922279,
                        "cWidth": "0.48346055979643765",
                        "cHeight": "0.09326424870466321",
                        "viewType": [
                            {
                                "Type": "Bar",
                                "probability": "1"
                            }
                        ]
                    },
                    "3": {
                        "hierarchy": "4.3",
                        "cX": 0.48091603053435117,
                        "cY": 0.9430051813471503,
                        "cWidth": "0.48346055979643765",
                        "cHeight": "0.10362694300518127",
                        "viewType": [
                            {
                                "Type": "Bar",
                                "probability": "1"
                            }
                        ]
                    }
                }
            },
            "5": {
                "hierarchy": "5",
                "cX": 0.8600508905852418,
                "cY": 0.49740932642487046,
                "cWidth": 0.272264631043257,
                "cHeight": 0.9948186528497409,
                "viewType": [
                    {
                        "Type": "dashboard",
                        "probability": "1"
                    }
                ],
                "mid_view": {}
            }
        },
        "interfaceX": 11.999999999999998,
        "interfaceY": 52.000000000000014
    }
}