{
    "result": {
        "tile": 128,
        "imageWidth": 655.8125,
        "imageHeight": 450,
        "interfaceWidth": 647,
        "interfaceHeight": 399,
        "views": {
            "1": {
                "hierarchy": "1",
                "cX": 0.49768160741885636,
                "cY": 0.05889724310776945,
                "cWidth": "0.9953632148377127",
                "cHeight": "0.1177944862155389",
                "viewType": [
                    {
                        "Type": "dashboard",
                        "probability": "1"
                    }
                ],
                "mid_view": {}
            },
            "2": {
                "hierarchy": "2",
                "cX": 0.15224111282843894,
                "cY": 0.2243107769423559,
                "cWidth": "0.3044822256568779",
                "cHeight": "0.21303258145363407",
                "viewType": [
                    {
                        "Type": "Distribution",
                        "probability": "1"
                    }
                ],
                "mid_view": {}
            },
            "3": {
                "hierarchy": "3",
                "cX": 0.15224111282843894,
                "cY": 0.44360902255639095,
                "cWidth": "0.3044822256568779",
                "cHeight": "0.22556390977443605",
                "viewType": [
                    {
                        "Type": "Bar",
                        "probability": "1"
                    }
                ],
                "mid_view": {}
            },
            "4": {
                "hierarchy": "4",
                "cX": 0.15224111282843894,
                "cY": 0.7756892230576441,
                "cWidth": "0.3044822256568779",
                "cHeight": "0.43859649122807026",
                "viewType": [
                    {
                        "Type": "Map",
                        "probability": "1"
                    }
                ],
                "mid_view": {}
            },
            "5": {
                "hierarchy": "5",
                "cX": 0.3802163833075734,
                "cY": 0.2844611528822055,
                "cWidth": "0.15146831530139102",
                "cHeight": "0.33333333333333326",
                "viewType": [
                    {
                        "Type": "Grid/Matrix",
                        "probability": "1"
                    }
                ],
                "mid_view": {}
            },
            "6": {
                "hierarchy": "6",
                "cX": 0.6329211746522411,
                "cY": 0.2844611528822055,
                "cWidth": "0.35394126738794446",
                "cHeight": "0.33333333333333326",
                "viewType": [
                    {
                        "Type": "small multiple",
                        "probability": "2"
                    }
                ],
                "mid_view": {
                    "1": {
                        "hierarchy": "6.1",
                        "cX": 0.5386398763523956,
                        "cY": 0.2844611528822055,
                        "cWidth": "0.16537867078825363",
                        "cHeight": "0.33333333333333326",
                        "viewType": [
                            {
                                "Type": "Point",
                                "probability": "1"
                            }
                        ]
                    },
                    "2": {
                        "hierarchy": "6.2",
                        "cX": 0.7156105100463679,
                        "cY": 0.2844611528822055,
                        "cWidth": "0.18856259659969088",
                        "cHeight": "0.33333333333333326",
                        "viewType": [
                            {
                                "Type": "Point",
                                "probability": "1"
                            }
                        ]
                    }
                }
            },
            "7": {
                "hierarchy": "7",
                "cX": 0.9026275115919629,
                "cY": 0.2844611528822055,
                "cWidth": "0.18547140649149926",
                "cHeight": "0.33333333333333326",
                "viewType": [
                    {
                        "Type": "Point",
                        "probability": "1"
                    }
                ],
                "mid_view": {}
            },
            "8": {
                "hierarchy": "8",
                "cX": 0.5571870170015456,
                "cY": 0.7230576441102757,
                "cWidth": "0.5054095826893354",
                "cHeight": "0.5438596491228072",
                "viewType": [
                    {
                        "Type": "Table",
                        "probability": "1"
                    }
                ],
                "mid_view": {}
            },
            "9": {
                "hierarchy": "9",
                "cX": 0.9026275115919629,
                "cY": 0.7230576441102757,
                "cWidth": "0.18547140649149926",
                "cHeight": "0.5438596491228072",
                "viewType": [
                    {
                        "Type": "dashboard",
                        "probability": "1"
                    }
                ],
                "mid_view": {}
            }
        },
        "interfaceX": 3.000000000000008,
        "interfaceY": 20.000000000000004
    }
}