{
    "result": {
        "tile": 37,
        "imageWidth": 764.625,
        "imageHeight": 450,
        "interfaceWidth": 763,
        "interfaceHeight": 414,
        "views": {
            "1": {
                "hierarchy": "1",
                "cX": 0.07011795543905633,
                "cY": 0.4975845410628019,
                "cWidth": "0.14023591087811266",
                "cHeight": "0.9951690821256038",
                "viewType": [
                    {
                        "Type": "dashboard",
                        "probability": "1"
                    }
                ],
                "mid_view": {}
            },
            "2": {
                "hierarchy": "2",
                "cX": 0.354521625163827,
                "cY": 0.21859903381642515,
                "cWidth": "0.42857142857142855",
                "cHeight": "0.43719806763285024",
                "viewType": [
                    {
                        "Type": "Tree and Network (Graph)",
                        "probability": "1"
                    }
                ],
                "mid_view": {}
            },
            "3": {
                "hierarchy": "3",
                "cX": 0.7824377457404981,
                "cY": 0.21859903381642515,
                "cWidth": "0.4272608125819135",
                "cHeight": "0.43719806763285024",
                "viewType": [
                    {
                        "Type": "Area",
                        "probability": "1"
                    }
                ],
                "mid_view": {}
            },
            "4": {
                "hierarchy": "4",
                "cX": 0.35386631716906947,
                "cY": 0.7161835748792271,
                "cWidth": "0.4272608125819135",
                "cHeight": "0.5579710144927537",
                "viewType": [
                    {
                        "Type": "Tree and Network (Graph)",
                        "probability": "1"
                    }
                ],
                "mid_view": {}
            },
            "5": {
                "hierarchy": "5",
                "cX": 0.7817824377457405,
                "cY": 0.7161835748792271,
                "cWidth": "0.42857142857142855",
                "cHeight": "0.5579710144927537",
                "viewType": [
                    {
                        "Type": "Grid/Matrix",
                        "probability": "1"
                    }
                ],
                "mid_view": {}
            }
        },
        "interfaceX": 2.999999999999991,
        "interfaceY": 17.99999999999999
    }
}