{
    "result": {
        "tile": 57,
        "imageWidth": 800,
        "imageHeight": 419.69793701171875,
        "interfaceWidth": 797,
        "interfaceHeight": 418,
        "views": {
            "1": {
                "hierarchy": "1",
                "cX": 0.14429109159347553,
                "cY": 0.37200956937799046,
                "cWidth": 0.28858218318695106,
                "cHeight": 0.7440191387559809,
                "viewType": [
                    {
                        "Type": "Tree and Network (Graph)",
                        "probability": "1"
                    }
                ],
                "mid_view": {}
            },
            "2": {
                "hierarchy": "2",
                "cX": 0.41907151819322463,
                "cY": 0.2404306220095694,
                "cWidth": 0.26097867001254704,
                "cHeight": 0.48086124401913877,
                "viewType": [
                    {
                        "Type": "SciVis",
                        "probability": "1"
                    }
                ],
                "mid_view": {}
            },
            "3": {
                "hierarchy": "3",
                "cX": 0.41907151819322463,
                "cY": 0.6124401913875599,
                "cWidth": 0.26097867001254704,
                "cHeight": 0.2631578947368421,
                "viewType": [
                    {
                        "Type": "Point",
                        "probability": "1"
                    }
                ],
                "mid_view": {}
            },
            "4": {
                "hierarchy": "4",
                "cX": 0.7013801756587201,
                "cY": 0.37200956937799046,
                "cWidth": 0.30363864491844433,
                "cHeight": 0.7440191387559809,
                "viewType": [
                    {
                        "Type": "Grid/Matrix",
                        "probability": "1"
                    }
                ],
                "mid_view": {}
            },
            "5": {
                "hierarchy": "5",
                "cX": 0.9259723964868256,
                "cY": 0.37200956937799046,
                "cWidth": 0.14554579673776663,
                "cHeight": 0.7440191387559809,
                "viewType": [
                    {
                        "Type": "dashboard",
                        "probability": "1"
                    }
                ],
                "mid_view": {}
            },
            "6": {
                "hierarchy": "6",
                "cX": 0.4993726474278545,
                "cY": 0.8720095693779905,
                "cWidth": 0.998745294855709,
                "cHeight": 0.25598086124401914,
                "viewType": [
                    {
                        "Type": "Grid/Matrix",
                        "probability": "1"
                    }
                ],
                "mid_view": {}
            }
        },
        "interfaceX": 1.999999999999994,
        "interfaceY": 0.999999999999982
    }
}