{
    "result": {
        "tile": 1,
        "imageWidth": 783.4375,
        "imageHeight": 450,
        "interfaceWidth": 768,
        "interfaceHeight": 430,
        "views": {
            "1": {
                "hierarchy": "1",
                "cX": 0.2076822916665,
                "cY": 0.486046511628,
                "cWidth": "0.415364583333",
                "cHeight": "0.972093023256",
                "viewType": [
                    {
                        "layout": "Vertical",
                        "Type": "small multiple",
                        "probability": "8"
                    }
                ],
                "mid_view": {
                    "1": {
                        "hierarchy": "1.1",
                        "cX": 0.2076822916665,
                        "cY": 0.07325581395355232,
                        "cWidth": "0.415364583333",
                        "cHeight": "0.14651162790710465",
                        "viewType": [
                            {
                                "layout": "Free",
                                "Type": "Bar",
                                "probability": "1"
                            }
                        ]
                    },
                    "2": {
                        "hierarchy": "1.2",
                        "cX": 0.2076822916665,
                        "cY": 0.2093023255815058,
                        "cWidth": "0.415364583333",
                        "cHeight": "0.1255813953488023",
                        "viewType": [
                            {
                                "layout": "Free",
                                "Type": "Bar",
                                "probability": "1"
                            }
                        ]
                    },
                    "3": {
                        "hierarchy": "1.3",
                        "cX": 0.2076822916665,
                        "cY": 0.33488372093032553,
                        "cWidth": "0.415364583333",
                        "cHeight": "0.12558139534883717",
                        "viewType": [
                            {
                                "layout": "Free",
                                "Type": "Bar",
                                "probability": "1"
                            }
                        ]
                    },
                    "4": {
                        "hierarchy": "1.4",
                        "cX": 0.2076822916665,
                        "cY": 0.4511627906977674,
                        "cWidth": "0.415364583333",
                        "cHeight": "0.10697674418604647",
                        "viewType": [
                            {
                                "layout": "Free",
                                "Type": "Bar",
                                "probability": "1"
                            }
                        ]
                    },
                    "5": {
                        "hierarchy": "1.5",
                        "cX": 0.2076822916665,
                        "cY": 0.5627906976745116,
                        "cWidth": "0.415364583333",
                        "cHeight": "0.11627906976744184",
                        "viewType": [
                            {
                                "layout": "Free",
                                "Type": "Bar",
                                "probability": "1"
                            }
                        ]
                    },
                    "6": {
                        "hierarchy": "1.6",
                        "cX": 0.2076822916665,
                        "cY": 0.6813953488373024,
                        "cWidth": "0.415364583333",
                        "cHeight": "0.12093023255813962",
                        "viewType": [
                            {
                                "layout": "Free",
                                "Type": "Bar",
                                "probability": "1"
                            }
                        ]
                    },
                    "7": {
                        "hierarchy": "1.7",
                        "cX": 0.2076822916665,
                        "cY": 0.8000000000000931,
                        "cWidth": "0.415364583333",
                        "cHeight": "0.11627906976744184",
                        "viewType": [
                            {
                                "layout": "Free",
                                "Type": "Bar",
                                "probability": "1"
                            }
                        ]
                    },
                    "8": {
                        "hierarchy": "1.8",
                        "cX": 0.2076822916665,
                        "cY": 0.915116279069907,
                        "cWidth": "0.415364583333",
                        "cHeight": "0.1139534883721861",
                        "viewType": [
                            {
                                "layout": "Free",
                                "Type": "Bar",
                                "probability": "1"
                            }
                        ]
                    }
                }
            },
            "2": {
                "hierarchy": "2",
                "cX": 0.7018229166665,
                "cY": 0.486046511628,
                "cWidth": "0.572916666667",
                "cHeight": "0.972093023256",
                "viewType": [
                    {
                        "layout": "Free",
                        "Type": "small multiple",
                        "probability": "16"
                    }
                ],
                "mid_view": {
                    "1": {
                        "hierarchy": "2.1",
                        "cX": 0.4928385416664166,
                        "cY": 0.12209302325586044,
                        "cWidth": "0.15494791666683339",
                        "cHeight": "0.24418604651172088",
                        "viewType": [
                            {
                                "Type": "Line",
                                "probability": "1"
                            }
                        ]
                    },
                    "2": {
                        "hierarchy": "2.2",
                        "cX": 0.6393229166665,
                        "cY": 0.12209302325586044,
                        "cWidth": "0.13802083333333331",
                        "cHeight": "0.24418604651172088",
                        "viewType": [
                            {
                                "Type": "Line",
                                "probability": "1"
                            }
                        ]
                    },
                    "3": {
                        "hierarchy": "2.3",
                        "cX": 0.7779947916665,
                        "cY": 0.12209302325586044,
                        "cWidth": "0.13932291666666666",
                        "cHeight": "0.24418604651172088",
                        "viewType": [
                            {
                                "Type": "Line",
                                "probability": "1"
                            }
                        ]
                    },
                    "4": {
                        "hierarchy": "2.4",
                        "cX": 0.9179687499999166,
                        "cY": 0.12209302325586044,
                        "cWidth": "0.14062500000016664",
                        "cHeight": "0.24418604651172088",
                        "viewType": [
                            {
                                "Type": "Line",
                                "probability": "1"
                            }
                        ]
                    },
                    "5": {
                        "hierarchy": "2.5",
                        "cX": 0.49251302083308335,
                        "cY": 0.36860465116288366,
                        "cWidth": "0.15429687500016676",
                        "cHeight": "0.24883720930232556",
                        "viewType": [
                            {
                                "Type": "Line",
                                "probability": "1"
                            }
                        ]
                    },
                    "6": {
                        "hierarchy": "2.6",
                        "cX": 0.6389973958331666,
                        "cY": 0.36860465116288366,
                        "cWidth": "0.13867187500000006",
                        "cHeight": "0.24883720930232556",
                        "viewType": [
                            {
                                "Type": "Line",
                                "probability": "1"
                            }
                        ]
                    },
                    "7": {
                        "hierarchy": "2.7",
                        "cX": 0.7789713541665001,
                        "cY": 0.36860465116288366,
                        "cWidth": "0.1412760416666667",
                        "cHeight": "0.24883720930232556",
                        "viewType": [
                            {
                                "Type": "Line",
                                "probability": "1"
                            }
                        ]
                    },
                    "8": {
                        "hierarchy": "2.8",
                        "cX": 0.9189453124999166,
                        "cY": 0.36860465116288366,
                        "cWidth": "0.13867187500016664",
                        "cHeight": "0.24883720930232556",
                        "viewType": [
                            {
                                "Type": "Line",
                                "probability": "1"
                            }
                        ]
                    },
                    "9": {
                        "hierarchy": "2.9",
                        "cX": 0.49088541666641666,
                        "cY": 0.6104651162791628,
                        "cWidth": "0.15104166666683339",
                        "cHeight": "0.23488372093023274",
                        "viewType": [
                            {
                                "Type": "Line",
                                "probability": "1"
                            }
                        ]
                    },
                    "10": {
                        "hierarchy": "2.10",
                        "cX": 0.6357421874998334,
                        "cY": 0.6104651162791628,
                        "cWidth": "0.13867187499999997",
                        "cHeight": "0.23488372093023274",
                        "viewType": [
                            {
                                "Type": "Line",
                                "probability": "1"
                            }
                        ]
                    },
                    "11": {
                        "hierarchy": "2.11",
                        "cX": 0.7770182291665001,
                        "cY": 0.6104651162791628,
                        "cWidth": "0.14388020833333326",
                        "cHeight": "0.23488372093023274",
                        "viewType": [
                            {
                                "Type": "Line",
                                "probability": "1"
                            }
                        ]
                    },
                    "12": {
                        "hierarchy": "2.12",
                        "cX": 0.9186197916665834,
                        "cY": 0.6104651162791628,
                        "cWidth": "0.13932291666683327",
                        "cHeight": "0.23488372093023274",
                        "viewType": [
                            {
                                "Type": "Line",
                                "probability": "1"
                            }
                        ]
                    },
                    "13": {
                        "hierarchy": "2.13",
                        "cX": 0.4905598958330833,
                        "cY": 0.8500000000001395,
                        "cWidth": "0.15039062500016664",
                        "cHeight": "0.24418604651172082",
                        "viewType": [
                            {
                                "Type": "Line",
                                "probability": "1"
                            }
                        ]
                    },
                    "14": {
                        "hierarchy": "2.14",
                        "cX": 0.6357421874998334,
                        "cY": 0.8500000000001395,
                        "cWidth": "0.13997395833333331",
                        "cHeight": "0.24418604651172082",
                        "viewType": [
                            {
                                "Type": "Line",
                                "probability": "1"
                            }
                        ]
                    },
                    "15": {
                        "hierarchy": "2.15",
                        "cX": 0.7763671874998334,
                        "cY": 0.8500000000001395,
                        "cWidth": "0.14127604166666663",
                        "cHeight": "0.24418604651172082",
                        "viewType": [
                            {
                                "Type": "Line",
                                "probability": "1"
                            }
                        ]
                    },
                    "16": {
                        "hierarchy": "2.16",
                        "cX": 0.9176432291665834,
                        "cY": 0.8500000000001395,
                        "cWidth": "0.14127604166683339",
                        "cHeight": "0.24418604651172082",
                        "viewType": [
                            {
                                "Type": "Line",
                                "probability": "1"
                            }
                        ]
                    }
                }
            }
        },
        "interfaceX": 6.000000000127983,
        "interfaceY": 24.999999999960014
    }
}