{
    "result": {
        "tile": 211,
        "imageWidth": 797.2396240234375,
        "imageHeight": 450,
        "interfaceWidth": 795,
        "interfaceHeight": 448,
        "views": {
            "1": {
                "hierarchy": "1",
                "cX": 0.4981132075471698,
                "cY": 0.056919642857142856,
                "cWidth": "0.9962264150943396",
                "cHeight": "0.11383928571428571",
                "viewType": [
                    {
                        "Type": "dashboard",
                        "probability": "1"
                    }
                ],
                "mid_view": {}
            },
            "2": {
                "hierarchy": "2",
                "cX": 0.15849056603773584,
                "cY": 0.3973214285714286,
                "cWidth": "0.3169811320754717",
                "cHeight": "0.5669642857142857",
                "viewType": [
                    {
                        "Type": "small multiple",
                        "probability": "12"
                    }
                ],
                "mid_view": {
                    "1": {
                        "hierarchy": "2.1",
                        "cX": 0.052830188679245285,
                        "cY": 0.1763392857142857,
                        "cWidth": "0.10566037735849057",
                        "cHeight": "0.12499999999999997",
                        "viewType": [
                            {
                                "Type": "Bar",
                                "probability": "1"
                            }
                        ]
                    },
                    "2": {
                        "hierarchy": "2.2",
                        "cX": 0.15660377358490565,
                        "cY": 0.1763392857142857,
                        "cWidth": "0.1018867924528302",
                        "cHeight": "0.12499999999999997",
                        "viewType": [
                            {
                                "Type": "Bar",
                                "probability": "1"
                            }
                        ]
                    },
                    "3": {
                        "hierarchy": "2.3",
                        "cX": 0.2622641509433962,
                        "cY": 0.1763392857142857,
                        "cWidth": "0.10943396226415092",
                        "cHeight": "0.12499999999999997",
                        "viewType": [
                            {
                                "Type": "Bar",
                                "probability": "1"
                            }
                        ]
                    },
                    "4": {
                        "hierarchy": "2.4",
                        "cX": 0.04937106918238994,
                        "cY": 0.31026785714285715,
                        "cWidth": "0.09874213836477988",
                        "cHeight": "0.14285714285714288",
                        "viewType": [
                            {
                                "Type": "Bar",
                                "probability": "1"
                            }
                        ]
                    },
                    "5": {
                        "hierarchy": "2.5",
                        "cX": 0.1540880503144654,
                        "cY": 0.31026785714285715,
                        "cWidth": "0.11069182389937107",
                        "cHeight": "0.14285714285714288",
                        "viewType": [
                            {
                                "Type": "Bar",
                                "probability": "1"
                            }
                        ]
                    },
                    "6": {
                        "hierarchy": "2.6",
                        "cX": 0.2632075471698113,
                        "cY": 0.31026785714285715,
                        "cWidth": "0.10754716981132073",
                        "cHeight": "0.14285714285714288",
                        "viewType": [
                            {
                                "Type": "Bar",
                                "probability": "1"
                            }
                        ]
                    },
                    "7": {
                        "hierarchy": "2.7",
                        "cX": 0.05157232704402516,
                        "cY": 0.4553571428571429,
                        "cWidth": "0.10314465408805032",
                        "cHeight": "0.14732142857142855",
                        "viewType": [
                            {
                                "Type": "Bar",
                                "probability": "1"
                            }
                        ]
                    },
                    "8": {
                        "hierarchy": "2.8",
                        "cX": 0.15849056603773584,
                        "cY": 0.4553571428571429,
                        "cWidth": "0.11069182389937107",
                        "cHeight": "0.14732142857142855",
                        "viewType": [
                            {
                                "Type": "Bar",
                                "probability": "1"
                            }
                        ]
                    },
                    "9": {
                        "hierarchy": "2.9",
                        "cX": 0.26540880503144654,
                        "cY": 0.4553571428571429,
                        "cWidth": "0.10314465408805029",
                        "cHeight": "0.14732142857142855",
                        "viewType": [
                            {
                                "Type": "Bar",
                                "probability": "1"
                            }
                        ]
                    },
                    "10": {
                        "hierarchy": "2.10",
                        "cX": 0.04748427672955975,
                        "cY": 0.6049107142857143,
                        "cWidth": "0.0949685534591195",
                        "cHeight": "0.15178571428571427",
                        "viewType": [
                            {
                                "Type": "Bar",
                                "probability": "1"
                            }
                        ]
                    },
                    "11": {
                        "hierarchy": "2.11",
                        "cX": 0.15031446540880503,
                        "cY": 0.6049107142857143,
                        "cWidth": "0.11069182389937107",
                        "cHeight": "0.15178571428571427",
                        "viewType": [
                            {
                                "Type": "Bar",
                                "probability": "1"
                            }
                        ]
                    },
                    "12": {
                        "hierarchy": "2.12",
                        "cX": 0.26132075471698113,
                        "cY": 0.6049107142857143,
                        "cWidth": "0.11132075471698111",
                        "cHeight": "0.15178571428571427",
                        "viewType": [
                            {
                                "Type": "Bar",
                                "probability": "1"
                            }
                        ]
                    }
                }
            },
            "3": {
                "hierarchy": "3",
                "cX": 0.15849056603773584,
                "cY": 0.8404017857142857,
                "cWidth": "0.3169811320754717",
                "cHeight": "0.31919642857142855",
                "viewType": [
                    {
                        "Type": "Bar",
                        "probability": "1"
                    }
                ],
                "mid_view": {}
            },
            "4": {
                "hierarchy": "4",
                "cX": 0.6566037735849056,
                "cY": 0.3794642857142857,
                "cWidth": "0.6792452830188679",
                "cHeight": "0.53125",
                "viewType": [
                    {
                        "Type": "Bar",
                        "probability": "1"
                    }
                ],
                "mid_view": {}
            },
            "5": {
                "hierarchy": "5",
                "cX": 0.6566037735849056,
                "cY": 0.8225446428571429,
                "cWidth": "0.6792452830188679",
                "cHeight": "0.35491071428571425",
                "viewType": [
                    {
                        "Type": "Grid/Matrix",
                        "probability": "1"
                    }
                ],
                "mid_view": {}
            }
        },
        "interfaceX": 5.999999999999998,
        "interfaceY": 2.9999999999999987
    }
}