{
    "result": {
        "tile": 16,
        "imageWidth": 800,
        "imageHeight": 382.4583435058594,
        "interfaceWidth": 743,
        "interfaceHeight": 373,
        "views": {
            "1": {
                "hierarchy": "1",
                "cX": 0.11507402422599998,
                "cY": 0.4691689008045,
                "cWidth": 0.23014804845199996,
                "cHeight": 0.938337801609,
                "viewType": [
                    {
                        "layout": "Free",
                        "Type": "dashboard",
                        "probability": "1"
                    }
                ],
                "mid_view": {}
            },
            "2": {
                "hierarchy": "2",
                "cX": 0.4004037685058028,
                "cY": 0.4691689008045,
                "cWidth": 0.3405114401076057,
                "cHeight": 0.938337801609,
                "viewType": [
                    {
                        "layout": "Free",
                        "Type": "Grid/Matrix",
                        "probability": "1"
                    }
                ],
                "mid_view": {}
            },
            "3": {
                "hierarchy": "3",
                "cX": 0.6507402422608938,
                "cY": 0.4691689008045,
                "cWidth": 0.16016150740257584,
                "cHeight": 0.938337801609,
                "viewType": [
                    {
                        "layout": "Free",
                        "Type": "Table",
                        "probability": "1"
                    }
                ],
                "mid_view": {}
            },
            "4": {
                "hierarchy": "4",
                "cX": 0.858008075369973,
                "cY": 0.4691689008045,
                "cWidth": 0.25437415881558256,
                "cHeight": 0.938337801609,
                "viewType": [
                    {
                        "layout": "Free",
                        "Type": "dashboard",
                        "probability": "1"
                    }
                ],
                "mid_view": {}
            }
        },
        "interfaceX": 6.500000000082011,
        "interfaceY": 19.9999999999215
    }
}