{
    "result": {
        "tile": 6,
        "imageWidth": 800,
        "imageHeight": 326.63543701171875,
        "interfaceWidth": 400,
        "interfaceHeight": 219,
        "views": {
            "1": {
                "hierarchy": "1",
                "cX": 0.4175,
                "cY": 0.3424657534246575,
                "cWidth": "0.835",
                "cHeight": "0.684931506849315",
                "viewType": [
                    {
                        "Type": "Point",
                        "probability": "1",
                        "layout": "Horizontal "
                    }
                ],
                "mid_view": {}
            },
            "2": {
                "hierarchy": "2",
                "cX": 0.91375,
                "cY": 0.4726027397260274,
                "cWidth": "0.15750000000000006",
                "cHeight": "0.9452054794520548",
                "viewType": [
                    {
                        "Type": "dashboard",
                        "probability": "1",
                        "layout": "Free"
                    }
                ],
                "mid_view": {}
            },
            "3": {
                "hierarchy": "3",
                "cX": 0.4175,
                "cY": 0.815068493150685,
                "cWidth": "0.835",
                "cHeight": "0.26027397260273977",
                "viewType": [
                    {
                        "Type": "Bar",
                        "probability": "1"
                    }
                ],
                "mid_view": {}
            }
        },
        "interfaceX": 4.0000000000000036,
        "interfaceY": 22.0
    }
}